{
  "makers": [{
    "id": "37"
    , "name": "Honda-EUA"
    , "created_at": "2016-03-04 12:27:46"
    , "updated_at": "2016-03-04 12:27:46"
  }]
  , "cars": [{
    "id": "505"
    , "name": "Accord Coupe"
    , "price": "2387500.00"
    , "category": {
      "id": "12"
      , "name": "coup\u00e9"
      , "created_at": "2015-04-23 16:31:22"
      , "updated_at": "2015-04-23 16:31:22"
      , "order": "0"
    }
    , "maker": {
      "id": "37"
      , "name": "Honda-EUA"
      , "created_at": "2016-03-04 12:27:46"
      , "updated_at": "2016-03-04 12:27:46"
    }
    , "models": [{
      "id": "1286"
      , "name": "LX-S"
      , "car_id": "505"
      , "created_at": "2016-03-04 13:00:32"
      , "updated_at": "2016-03-04 13:00:32"
      , "price": null
      , "description": null
      , "cilinder": "0"
    }, {
      "id": "1287"
      , "name": "EX"
      , "car_id": "505"
      , "created_at": "2016-03-04 13:00:32"
      , "updated_at": "2016-03-04 13:00:32"
      , "price": null
      , "description": null
      , "cilinder": "0"
    }, {
      "id": "1288"
      , "name": "EX-L"
      , "car_id": "505"
      , "created_at": "2016-03-04 13:00:32"
      , "updated_at": "2016-03-04 13:00:32"
      , "price": null
      , "description": null
      , "cilinder": "0"
    }, {
      "id": "1289"
      , "name": "EX-L V-6"
      , "car_id": "505"
      , "created_at": "2016-03-04 13:00:32"
      , "updated_at": "2016-03-04 13:00:32"
      , "price": null
      , "description": null
      , "cilinder": "0"
    }, {
      "id": "1290"
      , "name": "TOURING"
      , "car_id": "505"
      , "created_at": "2016-03-04 13:00:32"
      , "updated_at": "2016-03-04 13:00:32"
      , "price": null
      , "description": null
      , "cilinder": "0"
    }]
    , "images": [{
      "id": "6108"
      , "image": "20160309082037-San-Marino-Red.png"
      , "miniatura": null
      , "title": ""
      , "car_model_id": "1286"
      , "car_color_id": "1756"
      , "created_at": "2016-03-04 13:59:15"
      , "updated_at": "2016-03-09 08:20:37"
      , "car_id": "505"
    }, {
      "id": "6284"
      , "image": "20160309082923-Crystal-Black-Pearl.png"
      , "miniatura": null
      , "title": ""
      , "car_model_id": "1286"
      , "car_color_id": "1751"
      , "created_at": "2016-03-09 08:29:23"
      , "updated_at": "2016-03-09 08:30:21"
      , "car_id": "505"
    }, {
      "id": "6289"
      , "image": "20160309082939-Lunar-Silver-Metallic.png"
      , "miniatura": null
      , "title": ""
      , "car_model_id": "1286"
      , "car_color_id": "1754"
      , "created_at": "2016-03-09 08:29:39"
      , "updated_at": "2016-03-09 08:30:42"
      , "car_id": "505"
    }, {
      "id": "6290"
      , "image": "20160309082941-Deep-Blue-Opal-Metallic.png"
      , "miniatura": null
      , "title": ""
      , "car_model_id": "1286"
      , "car_color_id": "1753"
      , "created_at": "2016-03-09 08:29:41"
      , "updated_at": "2016-03-09 08:31:03"
      , "car_id": "505"
    }, {
      "id": "6291"
      , "image": "20160309082943-Mordern-Steel-Metallic.png"
      , "miniatura": null
      , "title": ""
      , "car_model_id": "1286"
      , "car_color_id": "1755"
      , "created_at": "2016-03-09 08:29:43"
      , "updated_at": "2016-03-09 08:31:21"
      , "car_id": "505"
    }, {
      "id": "6292"
      , "image": "20160309082944-Still-Night-Pearl.png"
      , "miniatura": null
      , "title": ""
      , "car_model_id": "1286"
      , "car_color_id": "1757"
      , "created_at": "2016-03-09 08:29:45"
      , "updated_at": "2016-03-09 08:31:32"
      , "car_id": "505"
    }, {
      "id": "6293"
      , "image": "20160309082945-White-Orchid-Pearl.png"
      , "miniatura": null
      , "title": ""
      , "car_model_id": "1286"
      , "car_color_id": "1758"
      , "created_at": "2016-03-09 08:29:45"
      , "updated_at": "2016-03-09 08:31:43"
      , "car_id": "505"
    }, {
      "id": "6294"
      , "image": "20160309083325-2016-honda-accord-coupe-driving-performance.jpg"
      , "miniatura": null
      , "title": null
      , "car_model_id": null
      , "car_color_id": null
      , "created_at": "2016-03-09 08:33:25"
      , "updated_at": "2016-03-09 08:33:25"
      , "car_id": "505"
    }, {
      "id": "6295"
      , "image": "20160309083326-2016-honda-accord-coupe-zone-climate-control.jpg"
      , "miniatura": null
      , "title": null
      , "car_model_id": null
      , "car_color_id": null
      , "created_at": "2016-03-09 08:33:27"
      , "updated_at": "2016-03-09 08:33:27"
      , "car_id": "505"
    }, {
      "id": "6296"
      , "image": "20160309083328-2016-honda-accord-coupe-taillights-design.jpg"
      , "miniatura": null
      , "title": null
      , "car_model_id": null
      , "car_color_id": null
      , "created_at": "2016-03-09 08:33:28"
      , "updated_at": "2016-03-09 08:33:28"
      , "car_id": "505"
    }, {
      "id": "6297"
      , "image": "20160309083329-2016-honda-accord-coupe-cockpit.jpg"
      , "miniatura": null
      , "title": null
      , "car_model_id": null
      , "car_color_id": null
      , "created_at": "2016-03-09 08:33:29"
      , "updated_at": "2016-03-09 08:33:29"
      , "car_id": "505"
    }, {
      "id": "6298"
      , "image": "20160309083331-2016-honda-accord-coupe-driver-assist-features.jpg"
      , "miniatura": null
      , "title": null
      , "car_model_id": null
      , "car_color_id": null
      , "created_at": "2016-03-09 08:33:31"
      , "updated_at": "2016-03-09 08:33:31"
      , "car_id": "505"
    }]
    , "image": {
      "id": "6108"
      , "image": "20160309082037-San-Marino-Red.png"
      , "miniatura": null
      , "title": ""
      , "car_model_id": "1286"
      , "car_color_id": "1756"
      , "created_at": "2016-03-04 13:59:15"
      , "updated_at": "2016-03-09 08:20:37"
      , "car_id": "505"
    }
    , "imageURL": "http:\/\/dealers.rewebmkt.com\/images\/"
    , "slug": "accord-coupe"
    , "cilinder": "0"
  }, {
    "id": "506"
    , "name": "Accord Sedan "
    , "price": "22205.00"
    , "category": {
      "id": "8"
      , "name": "Sedan"
      , "created_at": "2015-01-28 21:25:07"
      , "updated_at": "2015-01-28 21:25:07"
      , "order": "2"
    }
    , "maker": {
      "id": "37"
      , "name": "Honda-EUA"
      , "created_at": "2016-03-04 12:27:46"
      , "updated_at": "2016-03-04 12:27:46"
    }
    , "models": [{
      "id": "1291"
      , "name": "LX"
      , "car_id": "506"
      , "created_at": "2016-03-04 14:16:29"
      , "updated_at": "2016-03-04 14:16:29"
      , "price": null
      , "description": null
      , "cilinder": "0"
    }, {
      "id": "1292"
      , "name": "SPORT"
      , "car_id": "506"
      , "created_at": "2016-03-04 14:16:29"
      , "updated_at": "2016-03-04 14:16:29"
      , "price": null
      , "description": null
      , "cilinder": "0"
    }, {
      "id": "1293"
      , "name": "EX"
      , "car_id": "506"
      , "created_at": "2016-03-04 14:16:29"
      , "updated_at": "2016-03-04 14:16:29"
      , "price": null
      , "description": null
      , "cilinder": "0"
    }, {
      "id": "1294"
      , "name": "EX-L"
      , "car_id": "506"
      , "created_at": "2016-03-04 14:16:29"
      , "updated_at": "2016-03-04 14:16:29"
      , "price": null
      , "description": null
      , "cilinder": "0"
    }, {
      "id": "1295"
      , "name": "EX-L V-6"
      , "car_id": "506"
      , "created_at": "2016-03-04 14:16:29"
      , "updated_at": "2016-03-04 14:16:29"
      , "price": null
      , "description": null
      , "cilinder": "0"
    }, {
      "id": "1296"
      , "name": "TOURING"
      , "car_id": "506"
      , "created_at": "2016-03-04 14:16:29"
      , "updated_at": "2016-03-04 14:16:29"
      , "price": null
      , "description": null
      , "cilinder": "0"
    }]
    , "images": [{
      "id": "6256"
      , "image": "20160309085815-Basque-Red-Pearl-II.png"
      , "miniatura": null
      , "title": ""
      , "car_model_id": null
      , "car_color_id": "1713"
      , "created_at": "2016-03-09 01:46:38"
      , "updated_at": "2016-03-09 08:58:15"
      , "car_id": "506"
    }, {
      "id": "6257"
      , "image": "20160309085825-Lunar-Silver-Metallic.png"
      , "miniatura": null
      , "title": ""
      , "car_model_id": null
      , "car_color_id": "1718"
      , "created_at": "2016-03-09 01:46:38"
      , "updated_at": "2016-03-09 08:58:25"
      , "car_id": "506"
    }, {
      "id": "6258"
      , "image": "20160309085832-Obsidian-Blue-Pearl.png"
      , "miniatura": null
      , "title": ""
      , "car_model_id": null
      , "car_color_id": "1716"
      , "created_at": "2016-03-09 01:46:40"
      , "updated_at": "2016-03-09 08:58:33"
      , "car_id": "506"
    }, {
      "id": "6259"
      , "image": "20160309090123-San-Marino-Red.png"
      , "miniatura": null
      , "title": ""
      , "car_model_id": null
      , "car_color_id": "1715"
      , "created_at": "2016-03-09 01:46:41"
      , "updated_at": "2016-03-09 09:01:23"
      , "car_id": "506"
    }, {
      "id": "6260"
      , "image": "20160309085945-White-Orchid-Pearl.png"
      , "miniatura": null
      , "title": ""
      , "car_model_id": null
      , "car_color_id": "1714"
      , "created_at": "2016-03-09 01:46:41"
      , "updated_at": "2016-03-09 08:59:45"
      , "car_id": "506"
    }, {
      "id": "6261"
      , "image": "20160309090713-Champagne-Frost-Pearl.png"
      , "miniatura": null
      , "title": ""
      , "car_model_id": null
      , "car_color_id": "1721"
      , "created_at": "2016-03-09 01:46:41"
      , "updated_at": "2016-03-09 09:07:13"
      , "car_id": "506"
    }, {
      "id": "6262"
      , "image": "20160309090004-Crystal-Black-Pearl.png"
      , "miniatura": null
      , "title": ""
      , "car_model_id": null
      , "car_color_id": "1720"
      , "created_at": "2016-03-09 01:46:42"
      , "updated_at": "2016-03-09 09:00:05"
      , "car_id": "506"
    }, {
      "id": "6263"
      , "image": "20160309090015-Modern-Steel-Metallic.png"
      , "miniatura": null
      , "title": ""
      , "car_model_id": null
      , "car_color_id": "1717"
      , "created_at": "2016-03-09 01:46:42"
      , "updated_at": "2016-03-09 09:00:15"
      , "car_id": "506"
    }, {
      "id": "6264"
      , "image": "20160309090032-Kona-Coffee-Metallic.png"
      , "miniatura": null
      , "title": ""
      , "car_model_id": null
      , "car_color_id": "1719"
      , "created_at": "2016-03-09 01:46:42"
      , "updated_at": "2016-03-09 09:00:32"
      , "car_id": "506"
    }, {
      "id": "6299"
      , "image": "20160309090233-05.jpg"
      , "miniatura": null
      , "title": null
      , "car_model_id": null
      , "car_color_id": null
      , "created_at": "2016-03-09 09:02:33"
      , "updated_at": "2016-03-09 09:02:33"
      , "car_id": "506"
    }, {
      "id": "6300"
      , "image": "20160309090233-02.jpg"
      , "miniatura": null
      , "title": null
      , "car_model_id": null
      , "car_color_id": null
      , "created_at": "2016-03-09 09:02:33"
      , "updated_at": "2016-03-09 09:02:33"
      , "car_id": "506"
    }, {
      "id": "6301"
      , "image": "20160309090234-03.jpg"
      , "miniatura": null
      , "title": null
      , "car_model_id": null
      , "car_color_id": null
      , "created_at": "2016-03-09 09:02:34"
      , "updated_at": "2016-03-09 09:02:34"
      , "car_id": "506"
    }, {
      "id": "6302"
      , "image": "20160309090234-04.jpg"
      , "miniatura": null
      , "title": null
      , "car_model_id": null
      , "car_color_id": null
      , "created_at": "2016-03-09 09:02:34"
      , "updated_at": "2016-03-09 09:02:34"
      , "car_id": "506"
    }, {
      "id": "6303"
      , "image": "20160309090236-01.jpg"
      , "miniatura": null
      , "title": null
      , "car_model_id": null
      , "car_color_id": null
      , "created_at": "2016-03-09 09:02:36"
      , "updated_at": "2016-03-09 09:02:36"
      , "car_id": "506"
    }]
    , "image": {
      "id": "6256"
      , "image": "20160309085815-Basque-Red-Pearl-II.png"
      , "miniatura": null
      , "title": ""
      , "car_model_id": null
      , "car_color_id": "1713"
      , "created_at": "2016-03-09 01:46:38"
      , "updated_at": "2016-03-09 08:58:15"
      , "car_id": "506"
    }
    , "imageURL": "http:\/\/dealers.rewebmkt.com\/images\/"
    , "slug": "accord-sedan"
    , "cilinder": "0"
  }, {
    "id": "507"
    , "name": "Accord Hybrid"
    , "price": "29305.00"
    , "category": {
      "id": "14"
      , "name": "H\u00edbrido"
      , "created_at": "2015-04-29 00:00:54"
      , "updated_at": "2015-04-29 00:00:54"
      , "order": "4"
    }
    , "maker": {
      "id": "37"
      , "name": "Honda-EUA"
      , "created_at": "2016-03-04 12:27:46"
      , "updated_at": "2016-03-04 12:27:46"
    }
    , "models": [{
      "id": "1297"
      , "name": "Hybrid"
      , "car_id": "507"
      , "created_at": "2016-03-04 17:22:11"
      , "updated_at": "2016-03-04 17:22:11"
      , "price": null
      , "description": null
      , "cilinder": "0"
    }, {
      "id": "1298"
      , "name": "EX-L"
      , "car_id": "507"
      , "created_at": "2016-03-04 17:22:11"
      , "updated_at": "2016-03-04 17:22:11"
      , "price": null
      , "description": null
      , "cilinder": "0"
    }, {
      "id": "1299"
      , "name": "Touring"
      , "car_id": "507"
      , "created_at": "2016-03-04 17:22:11"
      , "updated_at": "2016-03-04 17:22:11"
      , "price": null
      , "description": null
      , "cilinder": "0"
    }]
    , "images": [{
      "id": "6304"
      , "image": "20160309044703-Alabaster-Silver-Metallic.png"
      , "miniatura": null
      , "title": ""
      , "car_model_id": "1297"
      , "car_color_id": "1761"
      , "created_at": "2016-03-09 16:47:04"
      , "updated_at": "2016-03-09 16:47:24"
      , "car_id": "507"
    }, {
      "id": "6305"
      , "image": "20160309044737-Crystal-Black-Pearl.png"
      , "miniatura": null
      , "title": ""
      , "car_model_id": null
      , "car_color_id": "1764"
      , "created_at": "2016-03-09 16:47:37"
      , "updated_at": "2016-03-09 16:48:20"
      , "car_id": "507"
    }, {
      "id": "6306"
      , "image": "20160309044737-Modern-Steel-Metallic.png"
      , "miniatura": null
      , "title": ""
      , "car_model_id": null
      , "car_color_id": "1763"
      , "created_at": "2016-03-09 16:47:38"
      , "updated_at": "2016-03-09 16:48:39"
      , "car_id": "507"
    }, {
      "id": "6307"
      , "image": "20160309044738-White-Orchid-Pearl.png"
      , "miniatura": null
      , "title": ""
      , "car_model_id": null
      , "car_color_id": "1767"
      , "created_at": "2016-03-09 16:47:38"
      , "updated_at": "2016-03-09 16:48:49"
      , "car_id": "507"
    }, {
      "id": "6308"
      , "image": "20160309044738-01.jpg"
      , "miniatura": null
      , "title": null
      , "car_model_id": null
      , "car_color_id": null
      , "created_at": "2016-03-09 16:47:38"
      , "updated_at": "2016-03-09 16:47:38"
      , "car_id": "507"
    }, {
      "id": "6309"
      , "image": "20160309044738-Hematite-Metallic.png"
      , "miniatura": null
      , "title": ""
      , "car_model_id": null
      , "car_color_id": "1766"
      , "created_at": "2016-03-09 16:47:38"
      , "updated_at": "2016-03-09 17:43:47"
      , "car_id": "507"
    }, {
      "id": "6310"
      , "image": "20160309044739-02.jpg"
      , "miniatura": null
      , "title": null
      , "car_model_id": null
      , "car_color_id": null
      , "created_at": "2016-03-09 16:47:39"
      , "updated_at": "2016-03-09 16:47:39"
      , "car_id": "507"
    }, {
      "id": "6311"
      , "image": "20160309044739-Obsidian-Blue-Pearl.png"
      , "miniatura": null
      , "title": ""
      , "car_model_id": null
      , "car_color_id": "1765"
      , "created_at": "2016-03-09 16:47:39"
      , "updated_at": "2016-03-09 16:49:11"
      , "car_id": "507"
    }, {
      "id": "6312"
      , "image": "20160309044739-03.jpg"
      , "miniatura": null
      , "title": null
      , "car_model_id": null
      , "car_color_id": null
      , "created_at": "2016-03-09 16:47:39"
      , "updated_at": "2016-03-09 16:47:39"
      , "car_id": "507"
    }, {
      "id": "6313"
      , "image": "20160309044739-04.jpg"
      , "miniatura": null
      , "title": null
      , "car_model_id": null
      , "car_color_id": null
      , "created_at": "2016-03-09 16:47:40"
      , "updated_at": "2016-03-09 16:47:40"
      , "car_id": "507"
    }, {
      "id": "6314"
      , "image": "20160309044740-05.jpg"
      , "miniatura": null
      , "title": null
      , "car_model_id": null
      , "car_color_id": null
      , "created_at": "2016-03-09 16:47:40"
      , "updated_at": "2016-03-09 16:47:40"
      , "car_id": "507"
    }, {
      "id": "6315"
      , "image": "20160309044741-Basque-Red-Pearl-II.png"
      , "miniatura": null
      , "title": ""
      , "car_model_id": null
      , "car_color_id": "1760"
      , "created_at": "2016-03-09 16:47:42"
      , "updated_at": "2016-03-09 16:49:20"
      , "car_id": "507"
    }, {
      "id": "6316"
      , "image": "20160309044742-Champagne-Frost-Pearl.png"
      , "miniatura": null
      , "title": ""
      , "car_model_id": null
      , "car_color_id": "1762"
      , "created_at": "2016-03-09 16:47:42"
      , "updated_at": "2016-03-09 16:49:29"
      , "car_id": "507"
    }]
    , "image": {
      "id": "6304"
      , "image": "20160309044703-Alabaster-Silver-Metallic.png"
      , "miniatura": null
      , "title": ""
      , "car_model_id": "1297"
      , "car_color_id": "1761"
      , "created_at": "2016-03-09 16:47:04"
      , "updated_at": "2016-03-09 16:47:24"
      , "car_id": "507"
    }
    , "imageURL": "http:\/\/dealers.rewebmkt.com\/images\/"
    , "slug": "accord-hybrid"
    , "cilinder": "0"
  }, {
    "id": "509"
    , "name": "Civic Sedan"
    , "price": "1864000.00"
    , "category": {
      "id": "8"
      , "name": "Sedan"
      , "created_at": "2015-01-28 21:25:07"
      , "updated_at": "2015-01-28 21:25:07"
      , "order": "2"
    }
    , "maker": {
      "id": "37"
      , "name": "Honda-EUA"
      , "created_at": "2016-03-04 12:27:46"
      , "updated_at": "2016-03-04 12:27:46"
    }
    , "models": [{
      "id": "1300"
      , "name": "LX"
      , "car_id": "509"
      , "created_at": "2016-03-04 19:02:35"
      , "updated_at": "2016-03-04 19:02:35"
      , "price": null
      , "description": null
      , "cilinder": "0"
    }, {
      "id": "1301"
      , "name": "EX"
      , "car_id": "509"
      , "created_at": "2016-03-04 19:02:35"
      , "updated_at": "2016-03-04 19:02:35"
      , "price": null
      , "description": null
      , "cilinder": "0"
    }, {
      "id": "1302"
      , "name": "EX-T"
      , "car_id": "509"
      , "created_at": "2016-03-04 19:02:35"
      , "updated_at": "2016-03-04 19:02:35"
      , "price": null
      , "description": null
      , "cilinder": "0"
    }, {
      "id": "1303"
      , "name": "EX-L"
      , "car_id": "509"
      , "created_at": "2016-03-04 19:02:35"
      , "updated_at": "2016-03-04 19:02:35"
      , "price": null
      , "description": null
      , "cilinder": "0"
    }, {
      "id": "1304"
      , "name": "Touring"
      , "car_id": "509"
      , "created_at": "2016-03-04 19:02:35"
      , "updated_at": "2016-03-04 19:02:35"
      , "price": null
      , "description": null
      , "cilinder": "0"
    }]
    , "images": [{
      "id": "6265"
      , "image": "20160309065821-Aegean-Blue-Metallic.png"
      , "miniatura": null
      , "title": ""
      , "car_model_id": null
      , "car_color_id": "1722"
      , "created_at": "2016-03-09 01:56:41"
      , "updated_at": "2016-03-09 18:58:21"
      , "car_id": "509"
    }, {
      "id": "6266"
      , "image": "20160309065827-Rallye-Red.png"
      , "miniatura": null
      , "title": ""
      , "car_model_id": null
      , "car_color_id": "1728"
      , "created_at": "2016-03-09 01:56:42"
      , "updated_at": "2016-03-09 18:58:27"
      , "car_id": "509"
    }, {
      "id": "6267"
      , "image": "20160309065835-Taffeta-White.png"
      , "miniatura": null
      , "title": ""
      , "car_model_id": null
      , "car_color_id": "1729"
      , "created_at": "2016-03-09 01:56:43"
      , "updated_at": "2016-03-09 18:58:35"
      , "car_id": "509"
    }, {
      "id": "6268"
      , "image": "20160309065844-Cosmic-Blue-Metallic.png"
      , "miniatura": null
      , "title": ""
      , "car_model_id": null
      , "car_color_id": "1724"
      , "created_at": "2016-03-09 01:56:44"
      , "updated_at": "2016-03-09 18:58:44"
      , "car_id": "509"
    }, {
      "id": "6269"
      , "image": "20160309065851-Burgundy-Night-Pearl.png"
      , "miniatura": null
      , "title": ""
      , "car_model_id": null
      , "car_color_id": "1723"
      , "created_at": "2016-03-09 01:56:44"
      , "updated_at": "2016-03-09 18:58:52"
      , "car_id": "509"
    }, {
      "id": "6270"
      , "image": "20160309065901-Modern-Steel-Metallic.png"
      , "miniatura": null
      , "title": ""
      , "car_model_id": null
      , "car_color_id": "1727"
      , "created_at": "2016-03-09 01:56:44"
      , "updated_at": "2016-03-09 18:59:01"
      , "car_id": "509"
    }, {
      "id": "6271"
      , "image": "20160309070104-White-Orchid-Pearl.png"
      , "miniatura": null
      , "title": ""
      , "car_model_id": null
      , "car_color_id": "1730"
      , "created_at": "2016-03-09 01:56:45"
      , "updated_at": "2016-03-09 19:01:05"
      , "car_id": "509"
    }, {
      "id": "6272"
      , "image": "20160309070112-Crystal-Black-Pearl.png"
      , "miniatura": null
      , "title": ""
      , "car_model_id": null
      , "car_color_id": "1725"
      , "created_at": "2016-03-09 01:56:45"
      , "updated_at": "2016-03-09 19:01:13"
      , "car_id": "509"
    }, {
      "id": "6273"
      , "image": "20160309070124-Lunar-Silver-Metallic.png"
      , "miniatura": null
      , "title": ""
      , "car_model_id": null
      , "car_color_id": "1726"
      , "created_at": "2016-03-09 01:56:46"
      , "updated_at": "2016-03-09 19:01:24"
      , "car_id": "509"
    }]
    , "image": {
      "id": "6265"
      , "image": "20160309065821-Aegean-Blue-Metallic.png"
      , "miniatura": null
      , "title": ""
      , "car_model_id": null
      , "car_color_id": "1722"
      , "created_at": "2016-03-09 01:56:41"
      , "updated_at": "2016-03-09 18:58:21"
      , "car_id": "509"
    }
    , "imageURL": "http:\/\/dealers.rewebmkt.com\/images\/"
    , "slug": "civic-sedan"
    , "cilinder": "0"
  }, {
    "id": "510"
    , "name": "Civic Coupe"
    , "price": "1829000.00"
    , "category": {
      "id": "12"
      , "name": "coup\u00e9"
      , "created_at": "2015-04-23 16:31:22"
      , "updated_at": "2015-04-23 16:31:22"
      , "order": "0"
    }
    , "maker": {
      "id": "37"
      , "name": "Honda-EUA"
      , "created_at": "2016-03-04 12:27:46"
      , "updated_at": "2016-03-04 12:27:46"
    }
    , "models": [{
      "id": "1319"
      , "name": "LX"
      , "car_id": "510"
      , "created_at": "2016-03-04 20:04:11"
      , "updated_at": "2016-03-04 20:04:11"
      , "price": null
      , "description": null
      , "cilinder": "0"
    }, {
      "id": "1320"
      , "name": "EX"
      , "car_id": "510"
      , "created_at": "2016-03-04 20:04:11"
      , "updated_at": "2016-03-04 20:04:11"
      , "price": null
      , "description": null
      , "cilinder": "0"
    }, {
      "id": "1321"
      , "name": "EX-L"
      , "car_id": "510"
      , "created_at": "2016-03-04 20:04:11"
      , "updated_at": "2016-03-04 20:04:11"
      , "price": null
      , "description": null
      , "cilinder": "0"
    }]
    , "images": [{
      "id": "6113"
      , "image": "20160309054543-Modern-Steel-Metallic.png"
      , "miniatura": null
      , "title": ""
      , "car_model_id": "1319"
      , "car_color_id": "1769"
      , "created_at": "2016-03-07 12:14:53"
      , "updated_at": "2016-03-09 17:45:43"
      , "car_id": "510"
    }, {
      "id": "6317"
      , "image": "20160309054554-Dyno-Blue-Pearl.png"
      , "miniatura": null
      , "title": ""
      , "car_model_id": null
      , "car_color_id": "1773"
      , "created_at": "2016-03-09 17:45:54"
      , "updated_at": "2016-03-09 17:46:10"
      , "car_id": "510"
    }, {
      "id": "6318"
      , "image": "20160309054556-Rallye-Red.png"
      , "miniatura": null
      , "title": ""
      , "car_model_id": null
      , "car_color_id": "1771"
      , "created_at": "2016-03-09 17:45:56"
      , "updated_at": "2016-03-09 17:46:16"
      , "car_id": "510"
    }, {
      "id": "6319"
      , "image": "20160309054557-Alabaster-Silver-Metallic.png"
      , "miniatura": null
      , "title": ""
      , "car_model_id": null
      , "car_color_id": "1768"
      , "created_at": "2016-03-09 17:45:57"
      , "updated_at": "2016-03-09 17:46:20"
      , "car_id": "510"
    }, {
      "id": "6320"
      , "image": "20160309054558-02.jpg"
      , "miniatura": null
      , "title": null
      , "car_model_id": null
      , "car_color_id": null
      , "created_at": "2016-03-09 17:45:58"
      , "updated_at": "2016-03-09 17:45:58"
      , "car_id": "510"
    }, {
      "id": "6321"
      , "image": "20160309054558-01.jpg"
      , "miniatura": null
      , "title": null
      , "car_model_id": null
      , "car_color_id": null
      , "created_at": "2016-03-09 17:45:59"
      , "updated_at": "2016-03-09 17:45:59"
      , "car_id": "510"
    }, {
      "id": "6322"
      , "image": "20160309054559-03.jpg"
      , "miniatura": null
      , "title": null
      , "car_model_id": null
      , "car_color_id": null
      , "created_at": "2016-03-09 17:45:59"
      , "updated_at": "2016-03-09 17:45:59"
      , "car_id": "510"
    }, {
      "id": "6323"
      , "image": "20160309054559-Crystal-Black-Pearl.png"
      , "miniatura": null
      , "title": ""
      , "car_model_id": null
      , "car_color_id": "1770"
      , "created_at": "2016-03-09 17:45:59"
      , "updated_at": "2016-03-09 17:46:25"
      , "car_id": "510"
    }, {
      "id": "6324"
      , "image": "20160309054559-04.jpg"
      , "miniatura": null
      , "title": null
      , "car_model_id": null
      , "car_color_id": null
      , "created_at": "2016-03-09 17:46:00"
      , "updated_at": "2016-03-09 17:46:00"
      , "car_id": "510"
    }, {
      "id": "6325"
      , "image": "20160309054559-Taffeta-White.png"
      , "miniatura": null
      , "title": ""
      , "car_model_id": null
      , "car_color_id": "1772"
      , "created_at": "2016-03-09 17:46:00"
      , "updated_at": "2016-03-09 17:46:32"
      , "car_id": "510"
    }]
    , "image": {
      "id": "6113"
      , "image": "20160309054543-Modern-Steel-Metallic.png"
      , "miniatura": null
      , "title": ""
      , "car_model_id": "1319"
      , "car_color_id": "1769"
      , "created_at": "2016-03-07 12:14:53"
      , "updated_at": "2016-03-09 17:45:43"
      , "car_id": "510"
    }
    , "imageURL": "http:\/\/dealers.rewebmkt.com\/images\/"
    , "slug": "civic-coupe"
    , "cilinder": "0"
  }, {
    "id": "511"
    , "name": " Civic Hybrid"
    , "price": "24735.00"
    , "category": {
      "id": "14"
      , "name": "H\u00edbrido"
      , "created_at": "2015-04-29 00:00:54"
      , "updated_at": "2015-04-29 00:00:54"
      , "order": "4"
    }
    , "maker": {
      "id": "37"
      , "name": "Honda-EUA"
      , "created_at": "2016-03-04 12:27:46"
      , "updated_at": "2016-03-04 12:27:46"
    }
    , "models": [{
      "id": "1322"
      , "name": "Hybrid"
      , "car_id": "511"
      , "created_at": "2016-03-07 12:21:45"
      , "updated_at": "2016-03-07 12:21:45"
      , "price": null
      , "description": null
      , "cilinder": "0"
    }, {
      "id": "1323"
      , "name": "Hybrid with Leather"
      , "car_id": "511"
      , "created_at": "2016-03-07 12:21:45"
      , "updated_at": "2016-03-07 12:21:45"
      , "price": null
      , "description": null
      , "cilinder": "0"
    }]
    , "images": [{
      "id": "6121"
      , "image": "20160309064255-White-Orchid-Pearl.png"
      , "miniatura": null
      , "title": ""
      , "car_model_id": "1322"
      , "car_color_id": "1776"
      , "created_at": "2016-03-07 13:32:22"
      , "updated_at": "2016-03-09 18:42:55"
      , "car_id": "511"
    }, {
      "id": "6326"
      , "image": "20160309064421-2015-honda-civic-hybrid-driving-efficiency.jpg"
      , "miniatura": null
      , "title": null
      , "car_model_id": null
      , "car_color_id": null
      , "created_at": "2016-03-09 18:44:21"
      , "updated_at": "2016-03-09 18:44:21"
      , "car_id": "511"
    }, {
      "id": "6327"
      , "image": "20160309064421-2015-honda-civic-hybrid-side0.jpg"
      , "miniatura": null
      , "title": null
      , "car_model_id": null
      , "car_color_id": null
      , "created_at": "2016-03-09 18:44:21"
      , "updated_at": "2016-03-09 18:44:21"
      , "car_id": "511"
    }, {
      "id": "6328"
      , "image": "20160309064422-2015-honda-civic-hybrid-interior.jpg"
      , "miniatura": null
      , "title": null
      , "car_model_id": null
      , "car_color_id": null
      , "created_at": "2016-03-09 18:44:22"
      , "updated_at": "2016-03-09 18:44:22"
      , "car_id": "511"
    }, {
      "id": "6329"
      , "image": "20160309064423-Crystal-Black-Pearl.png"
      , "miniatura": null
      , "title": ""
      , "car_model_id": null
      , "car_color_id": "1777"
      , "created_at": "2016-03-09 18:44:23"
      , "updated_at": "2016-03-09 18:44:58"
      , "car_id": "511"
    }, {
      "id": "6330"
      , "image": "20160309064423-Alabaster-Silver-Metallic.png"
      , "miniatura": null
      , "title": ""
      , "car_model_id": null
      , "car_color_id": "1774"
      , "created_at": "2016-03-09 18:44:23"
      , "updated_at": "2016-03-09 18:45:08"
      , "car_id": "511"
    }, {
      "id": "6331"
      , "image": "20160309064423-2015-honda-civic-hybrid-rear-seats.jpg"
      , "miniatura": null
      , "title": null
      , "car_model_id": null
      , "car_color_id": null
      , "created_at": "2016-03-09 18:44:23"
      , "updated_at": "2016-03-09 18:44:23"
      , "car_id": "511"
    }, {
      "id": "6332"
      , "image": "20160309064423-Green-Opal-Metallic.png"
      , "miniatura": null
      , "title": ""
      , "car_model_id": null
      , "car_color_id": "1778"
      , "created_at": "2016-03-09 18:44:24"
      , "updated_at": "2016-03-09 18:45:14"
      , "car_id": "511"
    }, {
      "id": "6333"
      , "image": "20160309064424-2015-honda-civic-hybrid-front1.jpg"
      , "miniatura": null
      , "title": null
      , "car_model_id": null
      , "car_color_id": null
      , "created_at": "2016-03-09 18:44:24"
      , "updated_at": "2016-03-09 18:44:24"
      , "car_id": "511"
    }, {
      "id": "6334"
      , "image": "20160309064424-Modern-Steel-Metallic.png"
      , "miniatura": null
      , "title": ""
      , "car_model_id": null
      , "car_color_id": "1775"
      , "created_at": "2016-03-09 18:44:24"
      , "updated_at": "2016-03-09 18:45:28"
      , "car_id": "511"
    }]
    , "image": {
      "id": "6121"
      , "image": "20160309064255-White-Orchid-Pearl.png"
      , "miniatura": null
      , "title": ""
      , "car_model_id": "1322"
      , "car_color_id": "1776"
      , "created_at": "2016-03-07 13:32:22"
      , "updated_at": "2016-03-09 18:42:55"
      , "car_id": "511"
    }
    , "imageURL": "http:\/\/dealers.rewebmkt.com\/images\/"
    , "slug": "civic-hybrid"
    , "cilinder": "0"
  }, {
    "id": "512"
    , "name": " Civic Natural Gas"
    , "price": "26740.00"
    , "category": {
      "id": "12"
      , "name": "coup\u00e9"
      , "created_at": "2015-04-23 16:31:22"
      , "updated_at": "2015-04-23 16:31:22"
      , "order": "0"
    }
    , "maker": {
      "id": "37"
      , "name": "Honda-EUA"
      , "created_at": "2016-03-04 12:27:46"
      , "updated_at": "2016-03-04 12:27:46"
    }
    , "models": [{
      "id": "1324"
      , "name": "Natural Gas"
      , "car_id": "512"
      , "created_at": "2016-03-07 13:43:43"
      , "updated_at": "2016-03-07 13:43:43"
      , "price": null
      , "description": null
      , "cilinder": "0"
    }]
    , "images": [{
      "id": "6137"
      , "image": "20160309071653-Alabaster-Silver-Metallic.png"
      , "miniatura": null
      , "title": ""
      , "car_model_id": null
      , "car_color_id": "1779"
      , "created_at": "2016-03-07 16:07:08"
      , "updated_at": "2016-03-09 19:16:59"
      , "car_id": "512"
    }, {
      "id": "6335"
      , "image": "20160309071706-2015-honda-silver-civic-natural-gas-rear1.jpg"
      , "miniatura": null
      , "title": null
      , "car_model_id": null
      , "car_color_id": null
      , "created_at": "2016-03-09 19:17:06"
      , "updated_at": "2016-03-09 19:17:06"
      , "car_id": "512"
    }, {
      "id": "6336"
      , "image": "20160309071709-Dyno-Blue-Pearl.png"
      , "miniatura": null
      , "title": ""
      , "car_model_id": null
      , "car_color_id": "1780"
      , "created_at": "2016-03-09 19:17:09"
      , "updated_at": "2016-03-09 19:18:15"
      , "car_id": "512"
    }, {
      "id": "6337"
      , "image": "20160309071710-2015-honda-metallic-civic-natural-gas-side1.jpg"
      , "miniatura": null
      , "title": null
      , "car_model_id": null
      , "car_color_id": null
      , "created_at": "2016-03-09 19:17:10"
      , "updated_at": "2016-03-09 19:17:10"
      , "car_id": "512"
    }, {
      "id": "6338"
      , "image": "20160309071711-2015-honda-civic-natural-gas-audio-controls1.jpg"
      , "miniatura": null
      , "title": null
      , "car_model_id": null
      , "car_color_id": null
      , "created_at": "2016-03-09 19:17:11"
      , "updated_at": "2016-03-09 19:17:11"
      , "car_id": "512"
    }, {
      "id": "6339"
      , "image": "20160309071711-2015-honda-civic-natural-gas-ECON-driving-mode.jpg"
      , "miniatura": null
      , "title": null
      , "car_model_id": null
      , "car_color_id": null
      , "created_at": "2016-03-09 19:17:11"
      , "updated_at": "2016-03-09 19:17:11"
      , "car_id": "512"
    }, {
      "id": "6340"
      , "image": "20160309071711-Modern-Steel-Metallic.png"
      , "miniatura": null
      , "title": ""
      , "car_model_id": null
      , "car_color_id": "1781"
      , "created_at": "2016-03-09 19:17:11"
      , "updated_at": "2016-03-09 19:18:30"
      , "car_id": "512"
    }, {
      "id": "6341"
      , "image": "20160309071711-Taffeta-White.png"
      , "miniatura": null
      , "title": ""
      , "car_model_id": null
      , "car_color_id": "1782"
      , "created_at": "2016-03-09 19:17:12"
      , "updated_at": "2016-03-09 19:18:36"
      , "car_id": "512"
    }, {
      "id": "6342"
      , "image": "20160309071711-2015-honda-civic-natural-gas-interior.jpg"
      , "miniatura": null
      , "title": null
      , "car_model_id": null
      , "car_color_id": null
      , "created_at": "2016-03-09 19:17:12"
      , "updated_at": "2016-03-09 19:17:12"
      , "car_id": "512"
    }]
    , "image": {
      "id": "6137"
      , "image": "20160309071653-Alabaster-Silver-Metallic.png"
      , "miniatura": null
      , "title": ""
      , "car_model_id": null
      , "car_color_id": "1779"
      , "created_at": "2016-03-07 16:07:08"
      , "updated_at": "2016-03-09 19:16:59"
      , "car_id": "512"
    }
    , "imageURL": "http:\/\/dealers.rewebmkt.com\/images\/"
    , "slug": "civic-natural-gas"
    , "cilinder": "0"
  }, {
    "id": "514"
    , "name": "Crosstour"
    , "price": "27530.00"
    , "category": {
      "id": "29"
      , "name": "SUV"
      , "created_at": "2015-05-08 23:38:02"
      , "updated_at": "2015-05-08 23:38:02"
      , "order": "5"
    }
    , "maker": {
      "id": "37"
      , "name": "Honda-EUA"
      , "created_at": "2016-03-04 12:27:46"
      , "updated_at": "2016-03-04 12:27:46"
    }
    , "models": [{
      "id": "1339"
      , "name": "EX"
      , "car_id": "514"
      , "created_at": "2016-03-07 16:35:58"
      , "updated_at": "2016-03-07 16:35:58"
      , "price": null
      , "description": null
      , "cilinder": "0"
    }, {
      "id": "1340"
      , "name": "EX-L"
      , "car_id": "514"
      , "created_at": "2016-03-07 16:35:58"
      , "updated_at": "2016-03-07 16:35:58"
      , "price": null
      , "description": null
      , "cilinder": "0"
    }, {
      "id": "1341"
      , "name": "EX V-6"
      , "car_id": "514"
      , "created_at": "2016-03-07 16:35:58"
      , "updated_at": "2016-03-07 16:35:58"
      , "price": null
      , "description": null
      , "cilinder": "0"
    }, {
      "id": "1342"
      , "name": "EX-L V-6"
      , "car_id": "514"
      , "created_at": "2016-03-07 16:35:58"
      , "updated_at": "2016-03-07 16:35:58"
      , "price": null
      , "description": null
      , "cilinder": "0"
    }]
    , "images": [{
      "id": "6163"
      , "image": "20160310090623-alabaster-silver-metallic.png"
      , "miniatura": null
      , "title": ""
      , "car_model_id": null
      , "car_color_id": "1783"
      , "created_at": "2016-03-07 18:46:35"
      , "updated_at": "2016-03-10 21:06:23"
      , "car_id": "514"
    }, {
      "id": "6365"
      , "image": "20160309081724-2015-honda-crosstour-exterior-feature-front1.jpg"
      , "miniatura": null
      , "title": null
      , "car_model_id": null
      , "car_color_id": null
      , "created_at": "2016-03-09 20:17:24"
      , "updated_at": "2016-03-09 20:17:24"
      , "car_id": "514"
    }, {
      "id": "6366"
      , "image": "20160309081724-Crystal-Black-Pearl.png"
      , "miniatura": null
      , "title": ""
      , "car_model_id": null
      , "car_color_id": "1787"
      , "created_at": "2016-03-09 20:17:24"
      , "updated_at": "2016-03-09 20:17:36"
      , "car_id": "514"
    }, {
      "id": "6367"
      , "image": "20160309081724-Kona-Coffee-Metallic.png"
      , "miniatura": null
      , "title": ""
      , "car_model_id": null
      , "car_color_id": "1786"
      , "created_at": "2016-03-09 20:17:24"
      , "updated_at": "2016-03-09 20:17:41"
      , "car_id": "514"
    }, {
      "id": "6368"
      , "image": "20160309081725-Modern-Steel-Metallic.png"
      , "miniatura": null
      , "title": ""
      , "car_model_id": null
      , "car_color_id": "1785"
      , "created_at": "2016-03-09 20:17:25"
      , "updated_at": "2016-03-09 20:17:47"
      , "car_id": "514"
    }, {
      "id": "6369"
      , "image": "20160309081726-2015-honda-crosstour-interior-feature-front-seating.jpg"
      , "miniatura": null
      , "title": null
      , "car_model_id": null
      , "car_color_id": null
      , "created_at": "2016-03-09 20:17:26"
      , "updated_at": "2016-03-09 20:17:26"
      , "car_id": "514"
    }, {
      "id": "6370"
      , "image": "20160309081726-2015-honda-crosstour-interior-feature-paddle-shifter-racing-detail.jpg"
      , "miniatura": null
      , "title": null
      , "car_model_id": null
      , "car_color_id": null
      , "created_at": "2016-03-09 20:17:26"
      , "updated_at": "2016-03-09 20:17:26"
      , "car_id": "514"
    }, {
      "id": "6371"
      , "image": "20160309081726-Mountain-Air-Metallic.png"
      , "miniatura": null
      , "title": ""
      , "car_model_id": null
      , "car_color_id": "1788"
      , "created_at": "2016-03-09 20:17:26"
      , "updated_at": "2016-03-09 20:17:54"
      , "car_id": "514"
    }, {
      "id": "6372"
      , "image": "20160309081726-White-Diamond-Pearl.png"
      , "miniatura": null
      , "title": ""
      , "car_model_id": null
      , "car_color_id": "1789"
      , "created_at": "2016-03-09 20:17:26"
      , "updated_at": "2016-03-09 20:17:59"
      , "car_id": "514"
    }, {
      "id": "6373"
      , "image": "20160309081726-2015-honda-crosstour-exterior-feature-rear1.jpg"
      , "miniatura": null
      , "title": null
      , "car_model_id": null
      , "car_color_id": null
      , "created_at": "2016-03-09 20:17:27"
      , "updated_at": "2016-03-09 20:17:27"
      , "car_id": "514"
    }, {
      "id": "6374"
      , "image": "20160309081727-2015-honda-crosstour-interior-feature-passenger-seating.jpg"
      , "miniatura": null
      , "title": null
      , "car_model_id": null
      , "car_color_id": null
      , "created_at": "2016-03-09 20:17:27"
      , "updated_at": "2016-03-09 20:17:27"
      , "car_id": "514"
    }, {
      "id": "6375"
      , "image": "20160309081728-Basque-Red-Pearl-II.png"
      , "miniatura": null
      , "title": ""
      , "car_model_id": null
      , "car_color_id": "1784"
      , "created_at": "2016-03-09 20:17:28"
      , "updated_at": "2016-03-09 20:18:04"
      , "car_id": "514"
    }]
    , "image": {
      "id": "6163"
      , "image": "20160310090623-alabaster-silver-metallic.png"
      , "miniatura": null
      , "title": ""
      , "car_model_id": null
      , "car_color_id": "1783"
      , "created_at": "2016-03-07 18:46:35"
      , "updated_at": "2016-03-10 21:06:23"
      , "car_id": "514"
    }
    , "imageURL": "http:\/\/dealers.rewebmkt.com\/images\/"
    , "slug": "crosstour"
    , "cilinder": "0"
  }, {
    "id": "515"
    , "name": "CR-V"
    , "price": "23745.00"
    , "category": {
      "id": "29"
      , "name": "SUV"
      , "created_at": "2015-05-08 23:38:02"
      , "updated_at": "2015-05-08 23:38:02"
      , "order": "5"
    }
    , "maker": {
      "id": "37"
      , "name": "Honda-EUA"
      , "created_at": "2016-03-04 12:27:46"
      , "updated_at": "2016-03-04 12:27:46"
    }
    , "models": [{
      "id": "1343"
      , "name": "LX"
      , "car_id": "515"
      , "created_at": "2016-03-07 19:35:53"
      , "updated_at": "2016-03-07 19:35:53"
      , "price": null
      , "description": null
      , "cilinder": "0"
    }, {
      "id": "1344"
      , "name": "SE"
      , "car_id": "515"
      , "created_at": "2016-03-07 19:35:53"
      , "updated_at": "2016-03-07 19:35:53"
      , "price": null
      , "description": null
      , "cilinder": "0"
    }, {
      "id": "1345"
      , "name": "EX"
      , "car_id": "515"
      , "created_at": "2016-03-07 19:35:53"
      , "updated_at": "2016-03-07 19:35:53"
      , "price": null
      , "description": null
      , "cilinder": "0"
    }, {
      "id": "1346"
      , "name": "EX-L"
      , "car_id": "515"
      , "created_at": "2016-03-07 19:35:53"
      , "updated_at": "2016-03-07 19:35:53"
      , "price": null
      , "description": null
      , "cilinder": "0"
    }, {
      "id": "1347"
      , "name": "TOURING"
      , "car_id": "515"
      , "created_at": "2016-03-07 19:39:26"
      , "updated_at": "2016-03-07 19:39:26"
      , "price": null
      , "description": null
      , "cilinder": "0"
    }]
    , "images": [{
      "id": "6274"
      , "image": "20160309083114-Alabaster-Silver-Metallic.png"
      , "miniatura": null
      , "title": ""
      , "car_model_id": null
      , "car_color_id": "1731"
      , "created_at": "2016-03-09 02:12:28"
      , "updated_at": "2016-03-09 20:31:14"
      , "car_id": "515"
    }, {
      "id": "6275"
      , "image": "20160309083106-Kona-Coffee-Metallic.png"
      , "miniatura": null
      , "title": ""
      , "car_model_id": null
      , "car_color_id": "1735"
      , "created_at": "2016-03-09 02:12:29"
      , "updated_at": "2016-03-09 20:31:06"
      , "car_id": "515"
    }, {
      "id": "6276"
      , "image": "20160309083123-Mountain-Air-Metallic.png"
      , "miniatura": null
      , "title": ""
      , "car_model_id": null
      , "car_color_id": "1737"
      , "created_at": "2016-03-09 02:12:29"
      , "updated_at": "2016-03-09 20:31:23"
      , "car_id": "515"
    }, {
      "id": "6277"
      , "image": "20160309083130-Crystal-Black-Pearl.png"
      , "miniatura": null
      , "title": ""
      , "car_model_id": null
      , "car_color_id": "1734"
      , "created_at": "2016-03-09 02:12:30"
      , "updated_at": "2016-03-09 20:31:30"
      , "car_id": "515"
    }, {
      "id": "6278"
      , "image": "20160309083139-Copper-Sunset-Pearl.png"
      , "miniatura": null
      , "title": ""
      , "car_model_id": null
      , "car_color_id": "1733"
      , "created_at": "2016-03-09 02:12:30"
      , "updated_at": "2016-03-09 20:31:39"
      , "car_id": "515"
    }, {
      "id": "6279"
      , "image": "20160309083147-Obsidian-Blue-Pearl.png"
      , "miniatura": null
      , "title": ""
      , "car_model_id": null
      , "car_color_id": "1738"
      , "created_at": "2016-03-09 02:12:30"
      , "updated_at": "2016-03-09 20:31:47"
      , "car_id": "515"
    }, {
      "id": "6280"
      , "image": "20160309083157-Basque-Red-Pearl-II.png"
      , "miniatura": null
      , "title": ""
      , "car_model_id": null
      , "car_color_id": "1732"
      , "created_at": "2016-03-09 02:12:31"
      , "updated_at": "2016-03-09 20:31:57"
      , "car_id": "515"
    }, {
      "id": "6281"
      , "image": "20160309083601-Urban-Titanium-Metallic.png"
      , "miniatura": null
      , "title": ""
      , "car_model_id": null
      , "car_color_id": "1739"
      , "created_at": "2016-03-09 02:12:31"
      , "updated_at": "2016-03-09 20:36:01"
      , "car_id": "515"
    }, {
      "id": "6282"
      , "image": "20160309083608-White-Diamond-Pearl.png"
      , "miniatura": null
      , "title": ""
      , "car_model_id": null
      , "car_color_id": "1740"
      , "created_at": "2016-03-09 02:12:32"
      , "updated_at": "2016-03-09 20:36:08"
      , "car_id": "515"
    }, {
      "id": "6283"
      , "image": "20160309083617-Modern-Steel-Metallic.png"
      , "miniatura": null
      , "title": ""
      , "car_model_id": null
      , "car_color_id": "1736"
      , "created_at": "2016-03-09 02:12:32"
      , "updated_at": "2016-03-09 20:36:18"
      , "car_id": "515"
    }, {
      "id": "6376"
      , "image": "20160309083628-02.jpg"
      , "miniatura": null
      , "title": null
      , "car_model_id": null
      , "car_color_id": null
      , "created_at": "2016-03-09 20:36:28"
      , "updated_at": "2016-03-09 20:36:28"
      , "car_id": "515"
    }, {
      "id": "6377"
      , "image": "20160309083628-01.jpg"
      , "miniatura": null
      , "title": null
      , "car_model_id": null
      , "car_color_id": null
      , "created_at": "2016-03-09 20:36:28"
      , "updated_at": "2016-03-09 20:36:28"
      , "car_id": "515"
    }, {
      "id": "6378"
      , "image": "20160309083629-04.jpg"
      , "miniatura": null
      , "title": null
      , "car_model_id": null
      , "car_color_id": null
      , "created_at": "2016-03-09 20:36:29"
      , "updated_at": "2016-03-09 20:36:29"
      , "car_id": "515"
    }, {
      "id": "6379"
      , "image": "20160309083629-05.jpg"
      , "miniatura": null
      , "title": null
      , "car_model_id": null
      , "car_color_id": null
      , "created_at": "2016-03-09 20:36:29"
      , "updated_at": "2016-03-09 20:36:29"
      , "car_id": "515"
    }, {
      "id": "6380"
      , "image": "20160309083629-03.jpg"
      , "miniatura": null
      , "title": null
      , "car_model_id": null
      , "car_color_id": null
      , "created_at": "2016-03-09 20:36:29"
      , "updated_at": "2016-03-09 20:36:29"
      , "car_id": "515"
    }]
    , "image": {
      "id": "6274"
      , "image": "20160309083114-Alabaster-Silver-Metallic.png"
      , "miniatura": null
      , "title": ""
      , "car_model_id": null
      , "car_color_id": "1731"
      , "created_at": "2016-03-09 02:12:28"
      , "updated_at": "2016-03-09 20:31:14"
      , "car_id": "515"
    }
    , "imageURL": "http:\/\/dealers.rewebmkt.com\/images\/"
    , "slug": "cr-v"
    , "cilinder": "0"
  }, {
    "id": "516"
    , "name": "CR-Z"
    , "price": "20295.00"
    , "category": {
      "id": "14"
      , "name": "H\u00edbrido"
      , "created_at": "2015-04-29 00:00:54"
      , "updated_at": "2015-04-29 00:00:54"
      , "order": "4"
    }
    , "maker": {
      "id": "37"
      , "name": "Honda-EUA"
      , "created_at": "2016-03-04 12:27:46"
      , "updated_at": "2016-03-04 12:27:46"
    }
    , "models": [{
      "id": "1348"
      , "name": "LX"
      , "car_id": "516"
      , "created_at": "2016-03-08 12:31:50"
      , "updated_at": "2016-03-08 12:31:50"
      , "price": null
      , "description": null
      , "cilinder": "0"
    }, {
      "id": "1349"
      , "name": "EX"
      , "car_id": "516"
      , "created_at": "2016-03-08 12:31:50"
      , "updated_at": "2016-03-08 12:31:50"
      , "price": null
      , "description": null
      , "cilinder": "0"
    }, {
      "id": "1350"
      , "name": "EX-L Navi"
      , "car_id": "516"
      , "created_at": "2016-03-08 12:31:50"
      , "updated_at": "2016-03-08 12:31:50"
      , "price": null
      , "description": null
      , "cilinder": "0"
    }]
    , "images": [{
      "id": "6165"
      , "image": "20160309084516-Milano-Red.png"
      , "miniatura": null
      , "title": ""
      , "car_model_id": null
      , "car_color_id": "1793"
      , "created_at": "2016-03-08 13:14:56"
      , "updated_at": "2016-03-09 20:45:20"
      , "car_id": "516"
    }, {
      "id": "6381"
      , "image": "20160309084529-04.jpg"
      , "miniatura": null
      , "title": null
      , "car_model_id": null
      , "car_color_id": null
      , "created_at": "2016-03-09 20:45:29"
      , "updated_at": "2016-03-09 20:45:29"
      , "car_id": "516"
    }, {
      "id": "6382"
      , "image": "20160309084529-05.jpg"
      , "miniatura": null
      , "title": null
      , "car_model_id": null
      , "car_color_id": null
      , "created_at": "2016-03-09 20:45:29"
      , "updated_at": "2016-03-09 20:45:29"
      , "car_id": "516"
    }, {
      "id": "6383"
      , "image": "20160309084533-Aegean-Blue-Metallic.png"
      , "miniatura": null
      , "title": ""
      , "car_model_id": null
      , "car_color_id": "1792"
      , "created_at": "2016-03-09 20:45:33"
      , "updated_at": "2016-03-09 20:45:46"
      , "car_id": "516"
    }, {
      "id": "6384"
      , "image": "20160309084533-01.jpg"
      , "miniatura": null
      , "title": null
      , "car_model_id": null
      , "car_color_id": null
      , "created_at": "2016-03-09 20:45:33"
      , "updated_at": "2016-03-09 20:45:33"
      , "car_id": "516"
    }, {
      "id": "6385"
      , "image": "20160309084533-Deep-Violet-Pearl-II.png"
      , "miniatura": null
      , "title": ""
      , "car_model_id": null
      , "car_color_id": "1795"
      , "created_at": "2016-03-09 20:45:33"
      , "updated_at": "2016-03-09 20:46:32"
      , "car_id": "516"
    }, {
      "id": "6386"
      , "image": "20160309084534-Polished-Metal-Metallic.png"
      , "miniatura": null
      , "title": ""
      , "car_model_id": null
      , "car_color_id": "1794"
      , "created_at": "2016-03-09 20:45:34"
      , "updated_at": "2016-03-09 20:47:00"
      , "car_id": "516"
    }, {
      "id": "6387"
      , "image": "20160309084534-02.jpg"
      , "miniatura": null
      , "title": null
      , "car_model_id": null
      , "car_color_id": null
      , "created_at": "2016-03-09 20:45:34"
      , "updated_at": "2016-03-09 20:45:34"
      , "car_id": "516"
    }, {
      "id": "6388"
      , "image": "20160309084535-03.jpg"
      , "miniatura": null
      , "title": null
      , "car_model_id": null
      , "car_color_id": null
      , "created_at": "2016-03-09 20:45:35"
      , "updated_at": "2016-03-09 20:45:35"
      , "car_id": "516"
    }, {
      "id": "6389"
      , "image": "20160309084535-Ivory-Pearl.png"
      , "miniatura": null
      , "title": ""
      , "car_model_id": null
      , "car_color_id": "1796"
      , "created_at": "2016-03-09 20:45:36"
      , "updated_at": "2016-03-09 20:47:09"
      , "car_id": "516"
    }, {
      "id": "6390"
      , "image": "20160309084536-Jet-Black.png"
      , "miniatura": null
      , "title": ""
      , "car_model_id": null
      , "car_color_id": "1797"
      , "created_at": "2016-03-09 20:45:36"
      , "updated_at": "2016-03-09 20:47:15"
      , "car_id": "516"
    }]
    , "image": {
      "id": "6165"
      , "image": "20160309084516-Milano-Red.png"
      , "miniatura": null
      , "title": ""
      , "car_model_id": null
      , "car_color_id": "1793"
      , "created_at": "2016-03-08 13:14:56"
      , "updated_at": "2016-03-09 20:45:20"
      , "car_id": "516"
    }
    , "imageURL": "http:\/\/dealers.rewebmkt.com\/images\/"
    , "slug": "cr-z"
    , "cilinder": "0"
  }, {
    "id": "517"
    , "name": "FIT"
    , "price": "15890.00"
    , "category": {
      "id": "22"
      , "name": "Hatch"
      , "created_at": "2015-05-05 03:03:53"
      , "updated_at": "2015-05-05 03:03:53"
      , "order": "1"
    }
    , "maker": {
      "id": "37"
      , "name": "Honda-EUA"
      , "created_at": "2016-03-04 12:27:46"
      , "updated_at": "2016-03-04 12:27:46"
    }
    , "models": [{
      "id": "1351"
      , "name": "LX"
      , "car_id": "517"
      , "created_at": "2016-03-08 13:21:42"
      , "updated_at": "2016-03-08 13:21:42"
      , "price": "0.00"
      , "description": null
      , "cilinder": "0"
    }, {
      "id": "1352"
      , "name": "EX"
      , "car_id": "517"
      , "created_at": "2016-03-08 13:21:42"
      , "updated_at": "2016-03-08 13:21:42"
      , "price": null
      , "description": null
      , "cilinder": "0"
    }, {
      "id": "1353"
      , "name": "EX-L"
      , "car_id": "517"
      , "created_at": "2016-03-08 13:21:42"
      , "updated_at": "2016-03-08 13:21:42"
      , "price": null
      , "description": null
      , "cilinder": "0"
    }]
    , "images": [{
      "id": "6173"
      , "image": "20160310055413-Milano-Red.png"
      , "miniatura": null
      , "title": ""
      , "car_model_id": null
      , "car_color_id": "1801"
      , "created_at": "2016-03-08 13:44:45"
      , "updated_at": "2016-03-10 17:54:13"
      , "car_id": "517"
    }, {
      "id": "6436"
      , "image": "20160310055434-Passion-Berry-Pearl.png"
      , "miniatura": null
      , "title": ""
      , "car_model_id": null
      , "car_color_id": "1805"
      , "created_at": "2016-03-10 17:54:34"
      , "updated_at": "2016-03-10 17:54:47"
      , "car_id": "517"
    }, {
      "id": "6437"
      , "image": "20160310055434-Modern-Steel-Metallic.png"
      , "miniatura": null
      , "title": ""
      , "car_model_id": null
      , "car_color_id": "1799"
      , "created_at": "2016-03-10 17:54:34"
      , "updated_at": "2016-03-10 17:54:53"
      , "car_id": "517"
    }, {
      "id": "6438"
      , "image": "20160310055434-Crystal-Black-Pearl.png"
      , "miniatura": null
      , "title": ""
      , "car_model_id": null
      , "car_color_id": "1802"
      , "created_at": "2016-03-10 17:54:34"
      , "updated_at": "2016-03-10 17:54:59"
      , "car_id": "517"
    }, {
      "id": "6439"
      , "image": "20160310055434-White-Orchid-Pearl.png"
      , "miniatura": null
      , "title": ""
      , "car_model_id": null
      , "car_color_id": "1803"
      , "created_at": "2016-03-10 17:54:34"
      , "updated_at": "2016-03-10 17:55:05"
      , "car_id": "517"
    }, {
      "id": "6440"
      , "image": "20160310055434-Alabaster-Silver-Metallic.png"
      , "miniatura": null
      , "title": ""
      , "car_model_id": null
      , "car_color_id": "1800"
      , "created_at": "2016-03-10 17:54:34"
      , "updated_at": "2016-03-10 17:55:13"
      , "car_id": "517"
    }, {
      "id": "6441"
      , "image": "20160310055434-Mistyc-Yellow-Pearl.png"
      , "miniatura": null
      , "title": ""
      , "car_model_id": null
      , "car_color_id": "1804"
      , "created_at": "2016-03-10 17:54:34"
      , "updated_at": "2016-03-10 17:55:22"
      , "car_id": "517"
    }, {
      "id": "6442"
      , "image": "20160310055434-05.jpg"
      , "miniatura": null
      , "title": null
      , "car_model_id": null
      , "car_color_id": null
      , "created_at": "2016-03-10 17:54:34"
      , "updated_at": "2016-03-10 17:54:34"
      , "car_id": "517"
    }, {
      "id": "6443"
      , "image": "20160310055434-03.jpg"
      , "miniatura": null
      , "title": null
      , "car_model_id": null
      , "car_color_id": null
      , "created_at": "2016-03-10 17:54:34"
      , "updated_at": "2016-03-10 17:54:34"
      , "car_id": "517"
    }, {
      "id": "6444"
      , "image": "20160310055434-02.jpg"
      , "miniatura": null
      , "title": null
      , "car_model_id": null
      , "car_color_id": null
      , "created_at": "2016-03-10 17:54:34"
      , "updated_at": "2016-03-10 17:54:34"
      , "car_id": "517"
    }, {
      "id": "6445"
      , "image": "20160310055434-04.jpg"
      , "miniatura": null
      , "title": null
      , "car_model_id": null
      , "car_color_id": null
      , "created_at": "2016-03-10 17:54:34"
      , "updated_at": "2016-03-10 17:54:34"
      , "car_id": "517"
    }, {
      "id": "6446"
      , "image": "20160310055434-Aegean-Blue-Metallic.png"
      , "miniatura": null
      , "title": ""
      , "car_model_id": null
      , "car_color_id": "1798"
      , "created_at": "2016-03-10 17:54:35"
      , "updated_at": "2016-03-10 17:55:30"
      , "car_id": "517"
    }, {
      "id": "6447"
      , "image": "20160310055435-01.jpg"
      , "miniatura": null
      , "title": null
      , "car_model_id": null
      , "car_color_id": null
      , "created_at": "2016-03-10 17:54:35"
      , "updated_at": "2016-03-10 17:54:35"
      , "car_id": "517"
    }]
    , "image": {
      "id": "6173"
      , "image": "20160310055413-Milano-Red.png"
      , "miniatura": null
      , "title": ""
      , "car_model_id": null
      , "car_color_id": "1801"
      , "created_at": "2016-03-08 13:44:45"
      , "updated_at": "2016-03-10 17:54:13"
      , "car_id": "517"
    }
    , "imageURL": "http:\/\/dealers.rewebmkt.com\/images\/"
    , "slug": "fit"
    , "cilinder": "0"
  }, {
    "id": "518"
    , "name": "HR-V"
    , "price": "19215.00"
    , "category": {
      "id": "29"
      , "name": "SUV"
      , "created_at": "2015-05-08 23:38:02"
      , "updated_at": "2015-05-08 23:38:02"
      , "order": "5"
    }
    , "maker": {
      "id": "37"
      , "name": "Honda-EUA"
      , "created_at": "2016-03-04 12:27:46"
      , "updated_at": "2016-03-04 12:27:46"
    }
    , "models": [{
      "id": "1354"
      , "name": "LX"
      , "car_id": "518"
      , "created_at": "2016-03-08 13:53:30"
      , "updated_at": "2016-03-08 13:53:30"
      , "price": null
      , "description": null
      , "cilinder": "0"
    }, {
      "id": "1355"
      , "name": "EX"
      , "car_id": "518"
      , "created_at": "2016-03-08 13:53:30"
      , "updated_at": "2016-03-08 13:53:30"
      , "price": null
      , "description": null
      , "cilinder": "0"
    }, {
      "id": "1356"
      , "name": "EX-L Navi"
      , "car_id": "518"
      , "created_at": "2016-03-08 13:53:30"
      , "updated_at": "2016-03-08 13:53:30"
      , "price": null
      , "description": null
      , "cilinder": "0"
    }]
    , "images": [{
      "id": "6179"
      , "image": "20160310082338-Misty-Green-Pearl.png"
      , "miniatura": null
      , "title": ""
      , "car_model_id": null
      , "car_color_id": "1827"
      , "created_at": "2016-03-08 14:20:52"
      , "updated_at": "2016-03-10 20:23:38"
      , "car_id": "518"
    }, {
      "id": "6463"
      , "image": "20160310082347-White-Orchid-Pearl.png"
      , "miniatura": null
      , "title": ""
      , "car_model_id": null
      , "car_color_id": "1824"
      , "created_at": "2016-03-10 19:53:41"
      , "updated_at": "2016-03-10 20:23:47"
      , "car_id": "518"
    }, {
      "id": "6464"
      , "image": "20160310082357-Modern-Steel-Metallic.png"
      , "miniatura": null
      , "title": ""
      , "car_model_id": null
      , "car_color_id": "1822"
      , "created_at": "2016-03-10 19:53:44"
      , "updated_at": "2016-03-10 20:23:57"
      , "car_id": "518"
    }, {
      "id": "6465"
      , "image": "20160310082414-Crystal-Black-Pearl.png"
      , "miniatura": null
      , "title": ""
      , "car_model_id": null
      , "car_color_id": "1823"
      , "created_at": "2016-03-10 19:53:44"
      , "updated_at": "2016-03-10 20:24:14"
      , "car_id": "518"
    }, {
      "id": "6466"
      , "image": "20160310082426-Deep-Ocean-Pearl.png"
      , "miniatura": null
      , "title": ""
      , "car_model_id": null
      , "car_color_id": "1826"
      , "created_at": "2016-03-10 19:53:44"
      , "updated_at": "2016-03-10 20:24:26"
      , "car_id": "518"
    }, {
      "id": "6467"
      , "image": "20160310082437-Alabaster-Silver-Metallic.png"
      , "miniatura": null
      , "title": ""
      , "car_model_id": null
      , "car_color_id": "1821"
      , "created_at": "2016-03-10 19:53:44"
      , "updated_at": "2016-03-10 20:24:37"
      , "car_id": "518"
    }, {
      "id": "6469"
      , "image": "20160310082548-Milano-Red.png"
      , "miniatura": "20160310082526-Milano-Red.png"
      , "title": ""
      , "car_model_id": null
      , "car_color_id": "1825"
      , "created_at": "2016-03-10 19:53:44"
      , "updated_at": "2016-03-10 20:25:48"
      , "car_id": "518"
    }, {
      "id": "6471"
      , "image": "20160310075412-03.jpg"
      , "miniatura": null
      , "title": null
      , "car_model_id": null
      , "car_color_id": null
      , "created_at": "2016-03-10 19:54:12"
      , "updated_at": "2016-03-10 19:54:12"
      , "car_id": "518"
    }, {
      "id": "6472"
      , "image": "20160310075412-01.jpg"
      , "miniatura": null
      , "title": null
      , "car_model_id": null
      , "car_color_id": null
      , "created_at": "2016-03-10 19:54:12"
      , "updated_at": "2016-03-10 19:54:12"
      , "car_id": "518"
    }, {
      "id": "6473"
      , "image": "20160310075412-02.jpg"
      , "miniatura": null
      , "title": null
      , "car_model_id": null
      , "car_color_id": null
      , "created_at": "2016-03-10 19:54:12"
      , "updated_at": "2016-03-10 19:54:12"
      , "car_id": "518"
    }, {
      "id": "6486"
      , "image": "20160310082530-04.jpg"
      , "miniatura": null
      , "title": null
      , "car_model_id": null
      , "car_color_id": null
      , "created_at": "2016-03-10 20:25:30"
      , "updated_at": "2016-03-10 20:25:30"
      , "car_id": "518"
    }]
    , "image": {
      "id": "6179"
      , "image": "20160310082338-Misty-Green-Pearl.png"
      , "miniatura": null
      , "title": ""
      , "car_model_id": null
      , "car_color_id": "1827"
      , "created_at": "2016-03-08 14:20:52"
      , "updated_at": "2016-03-10 20:23:38"
      , "car_id": "518"
    }
    , "imageURL": "http:\/\/dealers.rewebmkt.com\/images\/"
    , "slug": "hr-v"
    , "cilinder": "0"
  }, {
    "id": "519"
    , "name": "Insight"
    , "price": "18725.00"
    , "category": {
      "id": "14"
      , "name": "H\u00edbrido"
      , "created_at": "2015-04-29 00:00:54"
      , "updated_at": "2015-04-29 00:00:54"
      , "order": "4"
    }
    , "maker": {
      "id": "37"
      , "name": "Honda-EUA"
      , "created_at": "2016-03-04 12:27:46"
      , "updated_at": "2016-03-04 12:27:46"
    }
    , "models": [{
      "id": "1357"
      , "name": "Insight"
      , "car_id": "519"
      , "created_at": "2016-03-08 15:48:19"
      , "updated_at": "2016-03-08 15:48:19"
      , "price": null
      , "description": null
      , "cilinder": "0"
    }, {
      "id": "1358"
      , "name": "LX"
      , "car_id": "519"
      , "created_at": "2016-03-08 15:48:19"
      , "updated_at": "2016-03-08 15:48:19"
      , "price": null
      , "description": null
      , "cilinder": "0"
    }, {
      "id": "1359"
      , "name": "EX"
      , "car_id": "519"
      , "created_at": "2016-03-08 15:48:19"
      , "updated_at": "2016-03-08 15:48:19"
      , "price": null
      , "description": null
      , "cilinder": "0"
    }]
    , "images": [{
      "id": "6243"
      , "image": "20160310081658-alabaster.png"
      , "miniatura": null
      , "title": ""
      , "car_model_id": null
      , "car_color_id": "1829"
      , "created_at": "2016-03-08 17:36:28"
      , "updated_at": "2016-03-10 20:16:58"
      , "car_id": "519"
    }, {
      "id": "6475"
      , "image": "20160310081709-truffle.png"
      , "miniatura": null
      , "title": ""
      , "car_model_id": null
      , "car_color_id": "1835"
      , "created_at": "2016-03-10 20:17:09"
      , "updated_at": "2016-03-10 20:17:17"
      , "car_id": "519"
    }, {
      "id": "6476"
      , "image": "20160310081709-polished-metallic.png"
      , "miniatura": null
      , "title": ""
      , "car_model_id": null
      , "car_color_id": "1833"
      , "created_at": "2016-03-10 20:17:09"
      , "updated_at": "2016-03-10 20:17:24"
      , "car_id": "519"
    }, {
      "id": "6477"
      , "image": "20160310081709-taffeta-white.png"
      , "miniatura": null
      , "title": ""
      , "car_model_id": null
      , "car_color_id": "1832"
      , "created_at": "2016-03-10 20:17:10"
      , "updated_at": "2016-03-10 20:17:30"
      , "car_id": "519"
    }, {
      "id": "6478"
      , "image": "20160310081710-05.jpg"
      , "miniatura": null
      , "title": null
      , "car_model_id": null
      , "car_color_id": null
      , "created_at": "2016-03-10 20:17:10"
      , "updated_at": "2016-03-10 20:17:10"
      , "car_id": "519"
    }, {
      "id": "6479"
      , "image": "20160310081710-Mediterranean.png"
      , "miniatura": null
      , "title": ""
      , "car_model_id": null
      , "car_color_id": "1834"
      , "created_at": "2016-03-10 20:17:10"
      , "updated_at": "2016-03-10 20:17:37"
      , "car_id": "519"
    }, {
      "id": "6480"
      , "image": "20160310081710-crystal-black.png"
      , "miniatura": null
      , "title": ""
      , "car_model_id": null
      , "car_color_id": "1830"
      , "created_at": "2016-03-10 20:17:10"
      , "updated_at": "2016-03-10 20:17:45"
      , "car_id": "519"
    }, {
      "id": "6481"
      , "image": "20160310081709-milano-red.png"
      , "miniatura": null
      , "title": ""
      , "car_model_id": null
      , "car_color_id": "1831"
      , "created_at": "2016-03-10 20:17:10"
      , "updated_at": "2016-03-10 20:17:54"
      , "car_id": "519"
    }, {
      "id": "6482"
      , "image": "20160310081710-04.jpg"
      , "miniatura": null
      , "title": null
      , "car_model_id": null
      , "car_color_id": null
      , "created_at": "2016-03-10 20:17:10"
      , "updated_at": "2016-03-10 20:17:10"
      , "car_id": "519"
    }, {
      "id": "6483"
      , "image": "20160310081710-03.jpg"
      , "miniatura": null
      , "title": null
      , "car_model_id": null
      , "car_color_id": null
      , "created_at": "2016-03-10 20:17:10"
      , "updated_at": "2016-03-10 20:17:10"
      , "car_id": "519"
    }, {
      "id": "6484"
      , "image": "20160310081710-02.jpg"
      , "miniatura": null
      , "title": null
      , "car_model_id": null
      , "car_color_id": null
      , "created_at": "2016-03-10 20:17:10"
      , "updated_at": "2016-03-10 20:17:10"
      , "car_id": "519"
    }, {
      "id": "6485"
      , "image": "20160310081710-01.jpg"
      , "miniatura": null
      , "title": null
      , "car_model_id": null
      , "car_color_id": null
      , "created_at": "2016-03-10 20:17:10"
      , "updated_at": "2016-03-10 20:17:10"
      , "car_id": "519"
    }]
    , "image": {
      "id": "6243"
      , "image": "20160310081658-alabaster.png"
      , "miniatura": null
      , "title": ""
      , "car_model_id": null
      , "car_color_id": "1829"
      , "created_at": "2016-03-08 17:36:28"
      , "updated_at": "2016-03-10 20:16:58"
      , "car_id": "519"
    }
    , "imageURL": "http:\/\/dealers.rewebmkt.com\/images\/"
    , "slug": "insight"
    , "cilinder": "0"
  }, {
    "id": "520"
    , "name": " Odyssey"
    , "price": "2940000.00"
    , "category": {
      "id": "61"
      , "name": "SUV & MPV"
      , "created_at": "2016-01-06 19:50:05"
      , "updated_at": "2016-01-06 19:50:05"
      , "order": "0"
    }
    , "maker": {
      "id": "37"
      , "name": "Honda-EUA"
      , "created_at": "2016-03-04 12:27:46"
      , "updated_at": "2016-03-04 12:27:46"
    }
    , "models": [{
      "id": "1360"
      , "name": "LX"
      , "car_id": "520"
      , "created_at": "2016-03-08 16:22:16"
      , "updated_at": "2016-03-08 16:22:16"
      , "price": null
      , "description": null
      , "cilinder": "0"
    }, {
      "id": "1361"
      , "name": "EX"
      , "car_id": "520"
      , "created_at": "2016-03-08 16:22:16"
      , "updated_at": "2016-03-08 16:22:16"
      , "price": null
      , "description": null
      , "cilinder": "0"
    }, {
      "id": "1362"
      , "name": "SE"
      , "car_id": "520"
      , "created_at": "2016-03-08 16:22:16"
      , "updated_at": "2016-03-08 16:22:16"
      , "price": null
      , "description": null
      , "cilinder": "0"
    }, {
      "id": "1363"
      , "name": "EX-L"
      , "car_id": "520"
      , "created_at": "2016-03-08 16:22:16"
      , "updated_at": "2016-03-08 16:22:16"
      , "price": null
      , "description": null
      , "cilinder": "0"
    }, {
      "id": "1364"
      , "name": "TOURING"
      , "car_id": "520"
      , "created_at": "2016-03-08 16:22:16"
      , "updated_at": "2016-03-08 16:22:16"
      , "price": null
      , "description": null
      , "cilinder": "0"
    }, {
      "id": "1365"
      , "name": "TOURING ELITE"
      , "car_id": "520"
      , "created_at": "2016-03-08 16:22:16"
      , "updated_at": "2016-03-08 16:22:16"
      , "price": null
      , "description": null
      , "cilinder": "0"
    }]
    , "images": [{
      "id": "6244"
      , "image": "20160310083936-Crystal-Black-Pearl.png"
      , "miniatura": null
      , "title": ""
      , "car_model_id": null
      , "car_color_id": "1840"
      , "created_at": "2016-03-08 17:45:21"
      , "updated_at": "2016-03-10 20:39:36"
      , "car_id": "520"
    }, {
      "id": "6487"
      , "image": "20160310083954-smoky-topaz.png"
      , "miniatura": null
      , "title": ""
      , "car_model_id": null
      , "car_color_id": "1836"
      , "created_at": "2016-03-10 20:39:54"
      , "updated_at": "2016-03-10 20:40:02"
      , "car_id": "520"
    }, {
      "id": "6488"
      , "image": "20160310083954-obsidian-blue.png"
      , "miniatura": null
      , "title": ""
      , "car_model_id": null
      , "car_color_id": "1841"
      , "created_at": "2016-03-10 20:39:54"
      , "updated_at": "2016-03-10 20:40:09"
      , "car_id": "520"
    }, {
      "id": "6489"
      , "image": "20160310083954-Lunar-silver.png"
      , "miniatura": null
      , "title": ""
      , "car_model_id": null
      , "car_color_id": "1842"
      , "created_at": "2016-03-10 20:39:54"
      , "updated_at": "2016-03-10 20:40:16"
      , "car_id": "520"
    }, {
      "id": "6490"
      , "image": "20160310083954-modern-steel.png"
      , "miniatura": null
      , "title": ""
      , "car_model_id": null
      , "car_color_id": "1838"
      , "created_at": "2016-03-10 20:39:54"
      , "updated_at": "2016-03-10 20:40:23"
      , "car_id": "520"
    }, {
      "id": "6491"
      , "image": "20160310083954-Deep-scarlet-pearl.png"
      , "miniatura": null
      , "title": ""
      , "car_model_id": null
      , "car_color_id": "1837"
      , "created_at": "2016-03-10 20:39:54"
      , "updated_at": "2016-03-10 20:40:30"
      , "car_id": "520"
    }, {
      "id": "6492"
      , "image": "20160310083954-white-diamond.png"
      , "miniatura": null
      , "title": ""
      , "car_model_id": null
      , "car_color_id": "1839"
      , "created_at": "2016-03-10 20:39:54"
      , "updated_at": "2016-03-10 20:40:39"
      , "car_id": "520"
    }, {
      "id": "6493"
      , "image": "20160310083954-05.jpg"
      , "miniatura": null
      , "title": null
      , "car_model_id": null
      , "car_color_id": null
      , "created_at": "2016-03-10 20:39:54"
      , "updated_at": "2016-03-10 20:39:54"
      , "car_id": "520"
    }, {
      "id": "6494"
      , "image": "20160310083954-04.jpg"
      , "miniatura": null
      , "title": null
      , "car_model_id": null
      , "car_color_id": null
      , "created_at": "2016-03-10 20:39:54"
      , "updated_at": "2016-03-10 20:39:54"
      , "car_id": "520"
    }, {
      "id": "6495"
      , "image": "20160310083954-01.jpg"
      , "miniatura": null
      , "title": null
      , "car_model_id": null
      , "car_color_id": null
      , "created_at": "2016-03-10 20:39:54"
      , "updated_at": "2016-03-10 20:39:54"
      , "car_id": "520"
    }, {
      "id": "6496"
      , "image": "20160310083954-03.jpg"
      , "miniatura": null
      , "title": null
      , "car_model_id": null
      , "car_color_id": null
      , "created_at": "2016-03-10 20:39:54"
      , "updated_at": "2016-03-10 20:39:54"
      , "car_id": "520"
    }, {
      "id": "6497"
      , "image": "20160310083954-02.jpg"
      , "miniatura": null
      , "title": null
      , "car_model_id": null
      , "car_color_id": null
      , "created_at": "2016-03-10 20:39:54"
      , "updated_at": "2016-03-10 20:39:54"
      , "car_id": "520"
    }]
    , "image": {
      "id": "6244"
      , "image": "20160310083936-Crystal-Black-Pearl.png"
      , "miniatura": null
      , "title": ""
      , "car_model_id": null
      , "car_color_id": "1840"
      , "created_at": "2016-03-08 17:45:21"
      , "updated_at": "2016-03-10 20:39:36"
      , "car_id": "520"
    }
    , "imageURL": "http:\/\/dealers.rewebmkt.com\/images\/"
    , "slug": "odyssey"
    , "cilinder": "0"
  }, {
    "id": "521"
    , "name": "Pilot"
    , "price": null
    , "category": {
      "id": "29"
      , "name": "SUV"
      , "created_at": "2015-05-08 23:38:02"
      , "updated_at": "2015-05-08 23:38:02"
      , "order": "5"
    }
    , "maker": {
      "id": "37"
      , "name": "Honda-EUA"
      , "created_at": "2016-03-04 12:27:46"
      , "updated_at": "2016-03-04 12:27:46"
    }
    , "models": [{
      "id": "1366"
      , "name": "LX"
      , "car_id": "521"
      , "created_at": "2016-03-08 17:43:35"
      , "updated_at": "2016-03-08 17:43:35"
      , "price": null
      , "description": null
      , "cilinder": "0"
    }, {
      "id": "1367"
      , "name": "EX"
      , "car_id": "521"
      , "created_at": "2016-03-08 17:43:35"
      , "updated_at": "2016-03-08 17:43:35"
      , "price": null
      , "description": null
      , "cilinder": "0"
    }, {
      "id": "1368"
      , "name": "EX-L"
      , "car_id": "521"
      , "created_at": "2016-03-08 17:43:35"
      , "updated_at": "2016-03-08 17:43:35"
      , "price": null
      , "description": null
      , "cilinder": "0"
    }, {
      "id": "1369"
      , "name": "TOURING"
      , "car_id": "521"
      , "created_at": "2016-03-08 17:43:35"
      , "updated_at": "2016-03-08 17:43:35"
      , "price": null
      , "description": null
      , "cilinder": "0"
    }, {
      "id": "1370"
      , "name": "ELITE"
      , "car_id": "521"
      , "created_at": "2016-03-08 17:43:35"
      , "updated_at": "2016-03-08 17:43:35"
      , "price": null
      , "description": null
      , "cilinder": "0"
    }]
    , "images": [{
      "id": "6245"
      , "image": "20160310085238-lunar-silver.png"
      , "miniatura": null
      , "title": ""
      , "car_model_id": null
      , "car_color_id": "1846"
      , "created_at": "2016-03-08 17:50:29"
      , "updated_at": "2016-03-10 20:52:38"
      , "car_id": "521"
    }, {
      "id": "6498"
      , "image": "20160310085304-obsidian-blue.png"
      , "miniatura": null
      , "title": ""
      , "car_model_id": null
      , "car_color_id": "1851"
      , "created_at": "2016-03-10 20:53:04"
      , "updated_at": "2016-03-10 20:53:15"
      , "car_id": "521"
    }, {
      "id": "6499"
      , "image": "20160310085304-white-diamond.png"
      , "miniatura": null
      , "title": ""
      , "car_model_id": null
      , "car_color_id": "1850"
      , "created_at": "2016-03-10 20:53:04"
      , "updated_at": "2016-03-10 20:53:22"
      , "car_id": "521"
    }, {
      "id": "6500"
      , "image": "20160310085304-steel-sapphire.png"
      , "miniatura": null
      , "title": ""
      , "car_model_id": null
      , "car_color_id": "1845"
      , "created_at": "2016-03-10 20:53:04"
      , "updated_at": "2016-03-10 20:55:13"
      , "car_id": "521"
    }, {
      "id": "6501"
      , "image": "20160310085305-modern-steel.png"
      , "miniatura": null
      , "title": ""
      , "car_model_id": null
      , "car_color_id": "1848"
      , "created_at": "2016-03-10 20:53:05"
      , "updated_at": "2016-03-10 20:54:00"
      , "car_id": "521"
    }, {
      "id": "6502"
      , "image": "20160310085305-05.jpg"
      , "miniatura": null
      , "title": null
      , "car_model_id": null
      , "car_color_id": null
      , "created_at": "2016-03-10 20:53:05"
      , "updated_at": "2016-03-10 20:53:05"
      , "car_id": "521"
    }, {
      "id": "6503"
      , "image": "20160310085305-Crystal-Black.png"
      , "miniatura": null
      , "title": ""
      , "car_model_id": null
      , "car_color_id": "1847"
      , "created_at": "2016-03-10 20:53:05"
      , "updated_at": "2016-03-10 20:55:25"
      , "car_id": "521"
    }, {
      "id": "6504"
      , "image": "20160310085305-04.jpg"
      , "miniatura": null
      , "title": null
      , "car_model_id": null
      , "car_color_id": null
      , "created_at": "2016-03-10 20:53:05"
      , "updated_at": "2016-03-10 20:53:05"
      , "car_id": "521"
    }, {
      "id": "6505"
      , "image": "20160310085305-Black-Forest-Pearl.png"
      , "miniatura": null
      , "title": ""
      , "car_model_id": null
      , "car_color_id": "1843"
      , "created_at": "2016-03-10 20:53:05"
      , "updated_at": "2016-03-10 20:58:09"
      , "car_id": "521"
    }, {
      "id": "6506"
      , "image": "20160310085305-dark-cherry.png"
      , "miniatura": null
      , "title": ""
      , "car_model_id": null
      , "car_color_id": "1844"
      , "created_at": "2016-03-10 20:53:05"
      , "updated_at": "2016-03-10 20:58:16"
      , "car_id": "521"
    }, {
      "id": "6507"
      , "image": "20160310085305-02.jpg"
      , "miniatura": null
      , "title": null
      , "car_model_id": null
      , "car_color_id": null
      , "created_at": "2016-03-10 20:53:05"
      , "updated_at": "2016-03-10 20:53:05"
      , "car_id": "521"
    }, {
      "id": "6508"
      , "image": "20160310085305-03.jpg"
      , "miniatura": null
      , "title": null
      , "car_model_id": null
      , "car_color_id": null
      , "created_at": "2016-03-10 20:53:05"
      , "updated_at": "2016-03-10 20:53:05"
      , "car_id": "521"
    }, {
      "id": "6509"
      , "image": "20160310085305-01.jpg"
      , "miniatura": null
      , "title": null
      , "car_model_id": null
      , "car_color_id": null
      , "created_at": "2016-03-10 20:53:05"
      , "updated_at": "2016-03-10 20:53:05"
      , "car_id": "521"
    }]
    , "image": {
      "id": "6245"
      , "image": "20160310085238-lunar-silver.png"
      , "miniatura": null
      , "title": ""
      , "car_model_id": null
      , "car_color_id": "1846"
      , "created_at": "2016-03-08 17:50:29"
      , "updated_at": "2016-03-10 20:52:38"
      , "car_id": "521"
    }
    , "imageURL": "http:\/\/dealers.rewebmkt.com\/images\/"
    , "slug": "pilot"
    , "cilinder": "0"
  }]
}
